…
<img src="eda_files/figure-gfm/unnamed-chunk-5-1.png" width="90%" />

## Grouping

``` r
# can group by multiple variables
weather_df |> 
  group_by(name, month)
```

    ## # A tibble: 2,190 × 7
    ## # Groups:   name, month [72]
    ##    name           id          date        prcp  tmax  tmin month     
    ##    <chr>          <chr>       <date>     <dbl> <dbl> <dbl> <date>    
    ##  1 CentralPark_NY USW00094728 2021-01-01   157   4.4   0.6 2021-01-01
    ##  2 CentralPark_NY USW00094728 2021-01-02    13  10.6   2.2 2021-01-01
    ##  3 CentralPark_NY USW00094728 2021-01-03    56   3.3   1.1 2021-01-01
    ##  4 CentralPark_NY USW00094728 2021-01-04     5   6.1   1.7 2021-01-01
    ##  5 CentralPark_NY USW00094728 2021-01-05     0   5.6   2.2 2021-01-01
    ##  6 CentralPark_NY USW00094728 2021-01-06     0   5     1.1 2021-01-01
    ##  7 CentralPark_NY USW00094728 2021-01-07     0   5    -1   2021-01-01
    ##  8 CentralPark_NY USW00094728 2021-01-08     0   2.8  -2.7 2021-01-01
    ##  9 CentralPark_NY USW00094728 2021-01-09     0   2.8  -4.3 2021-01-01
    ## 10 CentralPark_NY USW00094728 2021-01-10     0   5    -1.6 2021-01-01
    ## # ℹ 2,180 more rows

## Counting

``` r
#summarize allows use to summarize data within those groups. For example, to count the number of observations use n_obs = n() which reduces the group df into a new df that has the variables you want im the groups you that you started out with
weather_df |> 
  group_by(name, month) |> 
  summarize(n_obs = n())
```

    ## `summarise()` has grouped output by 'name'. You can override using the
    ## `.groups` argument.

    ## # A tibble: 72 × 3
    ## # Groups:   name [3]
    ##    name           month      n_obs
    ##    <chr>          <date>     <int>
    ##  1 CentralPark_NY 2021-01-01    31
    ##  2 CentralPark_NY 2021-02-01    28
    ##  3 CentralPark_NY 2021-03-01    31
    ##  4 CentralPark_NY 2021-04-01    30
    ##  5 CentralPark_NY 2021-05-01    31
    ##  6 CentralPark_NY 2021-06-01    30
    ##  7 CentralPark_NY 2021-07-01    31
    ##  8 CentralPark_NY 2021-08-01    31
    ##  9 CentralPark_NY 2021-09-01    30
    ## 10 CentralPark_NY 2021-10-01    31
    ## # ℹ 62 more rows
